digraph g {
{
"7,2" [shape=doublecircle]
"7,1" [shape=doublecircle]
"7,0" [shape=doublecircle]
}
"5,1" -> "6,2" [label="ε"]
"5,0" -> "6,1" [label="ε"]
"6,2" -> "7,2" [label="d"]
"3,2" -> "4,2" [label="b"]
"3,1" -> "4,1" [label="b"]
"3,0" -> "4,0" [label="b"]
"2,1" -> "3,1" [label="e"]
"1,1" -> "1,2" [label="*"]
"1,1" -> "2,2" [label="*"]
"2,2" -> "3,2" [label="e"]
"2,0" -> "3,0" [label="e"]
"2,0" -> "3,1" [label="ε"]
"2,1" -> "3,2" [label="ε"]
"4,0" -> "5,0" [label="i"]
"4,1" -> "5,1" [label="i"]
"4,2" -> "5,2" [label="i"]
"5,0" -> "6,0" [label="r"]
"1,0" -> "1,1" [label="*"]
"1,0" -> "2,1" [label="*"]
"1,0" -> "2,1" [label="ε"]
"5,2" -> "6,2" [label="r"]
"1,1" -> "2,2" [label="ε"]
"5,1" -> "6,1" [label="r"]
"3,1" -> "4,2" [label="ε"]
"0,1" -> "1,2" [label="*"]
"0,1" -> "0,2" [label="*"]
"6,1" -> "7,1" [label="d"]
"3,0" -> "4,1" [label="ε"]
"0,0" -> "1,1" [label="*"]
"0,0" -> "0,1" [label="*"]
"6,0" -> "7,0" [label="d"]
"4,1" -> "5,2" [label="ε"]
"4,0" -> "5,1" [label="ε"]
"7,1" -> "7,2" [label="*"]
"7,0" -> "7,1" [label="*"]
"0,1" -> "1,2" [label="ε"]
"0,0" -> "1,1" [label="ε"]
"6,1" -> "6,2" [label="*"]
"6,1" -> "7,2" [label="*"]
"6,0" -> "6,1" [label="*"]
"6,0" -> "7,1" [label="*"]
"6,1" -> "7,2" [label="ε"]
"1,0" -> "2,0" [label="h"]
"4,1" -> "5,2" [label="*"]
"4,1" -> "4,2" [label="*"]
"4,0" -> "5,1" [label="*"]
"4,0" -> "4,1" [label="*"]
"1,2" -> "2,2" [label="h"]
"1,1" -> "2,1" [label="h"]
"0,1" -> "1,1" [label="t"]
"3,0" -> "3,1" [label="*"]
"3,0" -> "4,1" [label="*"]
"0,0" -> "1,0" [label="t"]
"3,1" -> "3,2" [label="*"]
"3,1" -> "4,2" [label="*"]
"0,2" -> "1,2" [label="t"]
"2,0" -> "3,1" [label="*"]
"2,0" -> "2,1" [label="*"]
"2,1" -> "3,2" [label="*"]
"2,1" -> "2,2" [label="*"]
"5,1" -> "6,2" [label="*"]
"5,1" -> "5,2" [label="*"]
"6,0" -> "7,1" [label="ε"]
"5,0" -> "6,1" [label="*"]
"5,0" -> "5,1" [label="*"]
}
